{
  "static": {
    "urls": {
      "/fontawesome-webfont.674f50d287a8c48dc19b.eot": "d980c2ce873dc43af460d4d572d441304499f400",
      "/fontawesome-webfont.b06871f281fee6b241d6.ttf": "13b1eab65a983c7a73bc7997c479d66943f7c6cb",
      "/fontawesome-webfont.912ec66d7572ff821749.svg": "98a8aa5cf7d62c2eff5f07ede8d844b874ef06ed",
      "/fontawesome-webfont.fee66e712a8a08eef580.woff": "28b782240b3e76db824e12c02754a9731a167527",
      "/fontawesome-webfont.af7ae505a9eed503f8b8.woff2": "d6f48cba7d076fb6f2fd6ba993a75b9dc1ecbf0c",
      "/polyfills.f834ebaee2611915cf68.bundle.js": "460ae63c5ddcb09f4f47f993e3171ea4647e32bf",
      "/main.6dd29839c625900e435e.bundle.js": "49aa0edcc81c7fa427a82034969c79bfd9781c0f",
      "/sw-register.fea8019a86e368e4882f.bundle.js": "7dd8e03d9aecd3fc5e5dd134e771ea7c39b67123",
      "/inline.7881e43047c60589b903.bundle.js": "ea7cd44fc754a85691ebdb5bbcb8d89681c753e9",
      "/styles.ce780a60c359edfe4d00.bundle.css": "a5b274991428e2662ff68cc9ec9c9b03a079cd3b",
      "/favicon.ico": "b65083d46bbf63692d5d2cdd69622e6d7ecae317",
      "/manifest.json": "942c4caed84a485c2d982860f6f744c59d094957",
      "/robots.txt": "18564c6d8c43760f358f738d2f4fd9dbca6c4e87",
      "/assets/abc_menu_hardkey_panel_mtrl_mult.9.png": "e6e1ebfd1386a5ad17cfaba8763594a3254ef556",
      "/assets/alarma.png": "2b8a9aba2bfc3725c0250a4acdeeed7b408267bd",
      "/assets/almondfield.jpg": "ec67e5356762ab40178c8c8d637d1230e420938e",
      "/assets/bd.jpg": "5e62c150ba20f3b3f88592468ac739280a086f80",
      "/assets/back-left.png": "6af7e735d8dd207124adab51a75b3e0667a8c9e3",
      "/assets/bg_caldroid_btn_left.9.png": "74ea0339a12a5dfabb62c3f896841be3b5e609f0",
      "/assets/bg_caldroid_btn_right.9.png": "289f7d8d2beeb86791a1e8558bb9fd96ef174606",
      "/assets/btn_default_normal.9.png": "6c24372c93b64ee60c6240da8a51fcc971b65edb",
      "/assets/btn_default_pressed.9.png": "449376a1e62d2f27a0dc4a4b1989fd1cd1858818",
      "/assets/btn_green_normal.9.png": "e53dac602522526f408cda27dd892f37b1f54f44",
      "/assets/btn_green_pressed.9.png": "a9842111bc0dd8526c81a8d4393e26b542cb7fd9",
      "/assets/bg_multi_switch_group.9.png": "0c02d1274b501468327cc714673675b952aa2f14",
      "/assets/camera.png": "0d55b6e906e3fe2f14675a0bd9abd1cee94af0aa",
      "/assets/gota_roja_transparente.png": "89849ee93fc5a3e0f66b67824c9a1d87192e30a2",
      "/assets/fields.json": "1ef5929000bdfefdc192dae211d0cd6e259eaa49",
      "/assets/gota.png": "6fcf0383c2fdc49bbe4a874a95c71c6e84d32696",
      "/assets/grifo100trasnparente.png": "cfab8397aca23483a7c6bbdd49c7b90b8547dfbc",
      "/assets/ic_battery_green.png": "6140b359e4c03fe58679f962961c38e58704008a",
      "/assets/ic_battery_red.png": "55d254be63960d8d553df0774a36e330e2a99a17",
      "/assets/ic_navbar_arrow_back_android_24.png": "05cfc5e556cedd97d64da95a1921fd5d738c92e3",
      "/assets/ic_navbar_arrow_back_android_36.png": "a3e3e0ab7c8bd8b33eda3ef8b5b2e790d3aeefb3",
      "/assets/gota_humedad.png": "280eceb176451ce33a2329a12553f4a69cccd953",
      "/assets/gps_background.png": "de491c224bf6060b2e452c56533b9d0c0fbfb80e",
      "/assets/ic_navbar_arrow_back_android_48.png": "45455976e6236c54de546694cbca0208de6ad056",
      "/assets/ic_thumb_checked.9.png": "6c951fae6492b6847223e07ea05d0786d1711e2a",
      "/assets/lib/nativescript-webview-interface.js": "1d6cb5264ff16b6b72eb93e39071cdd67a21ec75",
      "/assets/lib/es6-promise.min.js": "ee4dbc31f5d9c0391c41a3cbc6b55faaf74f47a3",
      "/assets/lloviznas.png": "36366a53f71eb057e3f0724faf0f9a823f4b8eeb",
      "/assets/logo_bosch.png": "189ecf75f47959fbf7454ed163868b79a495fbdd",
      "/assets/lluvia_fuerte.png": "2d1000fbae8ef53967204aa66c4ec1847311fa47",
      "/assets/nivel_estres_0.png": "3037bc13d40b762fdd28d9b7f804ca574c0adae9",
      "/assets/ngx-rocket-logo.png": "0ac53fd27406fe5a36e68285315fb0012e54058e",
      "/assets/nivel_estres_1.png": "ea23df363c12d8cc6b6e9b8bd5ff5f875000b637",
      "/assets/nivel_estres_2.png": "90c866f5c6df45983df6ffc6fd84968987439f65",
      "/assets/map.png": "a33f0c710e33e399a1896d7b3f240373937c2b8c",
      "/assets/olivar1.jpg": "c67384432ed8aef6f0808945e3183fa767ffb284",
      "/assets/olivar3.jpg": "252888a11fab0e30a0e3dc4563c47f8a1e5f0a23",
      "/assets/nivel_estres_3.png": "658f3e5230b8e681958ddc6135f8f227b1e71336",
      "/assets/poslluvia.png": "5627b4a18120e16c17c03258bf6e4b3f7e31da84",
      "/assets/ramatr.png": "02a2c698cbcfd6511a1df72d8819fd96b4152107",
      "/assets/sensor_bg.9.png": "50028778bc8cb5566c56d14adcba72fe79486c89",
      "/assets/olivos_rama1.jpg": "90e3b870408374e50cd1eaa79b777197f0f9f43e",
      "/assets/sensor_abierto.png": "8d6cce4f379e8fc0b654ba375f0caadfa82928ff",
      "/assets/sensor_boton_gestion.png": "dd306e65c58b01351677ae36cef069b03146f1c9",
      "/assets/sensor_instalado.png": "99c837f6e7779a76d44536b7ad90f71b49f44ba3",
      "/assets/sensor_boton2.png": "d5c7606d74fa43ac604bde73a8bcc5f4b2a5028d",
      "/assets/sensor_selected_bg.9.png": "62d7b5f837f8ccd7ee848d941681c5cff9aee9f2",
      "/assets/sensor12345.json": "f32d5e9e1cad5ae2ce8110b6b9b11038d6ba5612",
      "/assets/signal_bluetooth.png": "67f74f059c36df55759ed173ca3ed1badd94f570",
      "/assets/sensor1234b0c.json": "2907871aa8a7a9360490a2c796dc22274a3173d2",
      "/assets/sobre.png": "3c71277b7c40252ae06d42fa41b1abf4b6692940",
      "/assets/sol_claros.png": "9872f093e4a403314d020046cce33d430f83124a",
      "/assets/soleado.png": "13ae4657b4949cb29898ca7be6239e2a6cb2fd8f",
      "/assets/soltransparente.png": "d0edcadf0fb1923d65a4ab81c4670f12fd0dfc8c",
      "/assets/solnube_transparente.png": "ff11c90b129f9186d9616186383a33abb18c420a",
      "/assets/time_bar.png": "7e0563bea34ad42f88292c19ed26954507ee35b3",
      "/assets/termometro.png": "e3cebc1880b8e5844796807cbccf390d3d7e2f78",
      "/assets/toggle_off.png": "5fd58809adab6eb7c8bac5bec4b24a39017ad186",
      "/assets/sensor_cerrado.png": "ed73422395567271fe214b00c51aa272cc4e3abc",
      "/assets/toggle_on.png": "5bee46a6db8387c1c9baf8a5ed5d93e87a1cdbf4",
      "/assets/tree0.png": "df19461322164ead80ee8bc3211484b670f6de18",
      "/assets/tree20.png": "4133ba5be76e8e84c81e0a757102808abf406f95",
      "/assets/tree10.png": "736664396fe457a9ac904471290332b6fa708dc5",
      "/assets/sensor_con_hoja.png": "df2e27f0a86a9786985475e48858498fc43c2f1d",
      "/assets/tree25.png": "1953a4526321da10992bdde2aa3d34530deb94ee",
      "/assets/tree100.png": "3009a8174a34ba56705e28b03f0e2d9db0ca0167",
      "/assets/tree40.png": "6a066946857111718d399d28ca219520aefdb9df",
      "/assets/tree50.png": "1b1d651bc488d7139912dfb42fe6f833ac34f5b5",
      "/assets/tree70.png": "c5ed7dcb566367c631f6239000a3fdfa32cefeb1",
      "/assets/tree80.png": "4c41d52c39e7d1d32594831e19025792cffc437b",
      "/assets/tree60.png": "d9a1bec84b23d81def2c21abb0ae9292239e3541",
      "/assets/tree90.png": "c6ac7f3324a5af1824159a8209f24ce7c7ac4921",
      "/assets/white_bg.jpg": "057d574d0b3ce1df2b70a960be01354eb3a56d1f",
      "/assets/tree26_30.png": "e1552d377f93dd1283ba87a3620e26e0fe82f18a",
      "/assets/weather.xml": "df75e50af93e32142845e9e9cb26557a8ef2137b",
      "/index.html": "32ebf85b2866bb2f36e0e7876a874e5726ec7d71"
    },
    "_generatedFromWebpack": true
  }
}