[
    {
        "id": 139303,
        "gateid": "12345",
        "timestamp": "Jan 18, 2018 6:31:31 PM",
        "macid": "12345",
        "pressure": 22,
        "battery": 62.7,
        "temperature": 28
    }
]